<?xml version="1.0" encoding="UTF-8" standalone="no"?>
<!-- Created with Inkscape (http://www.inkscape.org/) -->

<svg
   xmlns:dc="http://purl.org/dc/elements/1.1/"
   xmlns:cc="http://creativecommons.org/ns#"
   xmlns:rdf="http://www.w3.org/1999/02/22-rdf-syntax-ns#"
   xmlns:svg="http://www.w3.org/2000/svg"
   xmlns="http://www.w3.org/2000/svg"
   xmlns:xlink="http://www.w3.org/1999/xlink"
   xmlns:sodipodi="http://sodipodi.sourceforge.net/DTD/sodipodi-0.dtd"
   xmlns:inkscape="http://www.inkscape.org/namespaces/inkscape"
   width="118.68452mm"
   height="118.68452mm"
   viewBox="0 0 118.68452 118.68452"
   version="1.1"
   id="svg8"
   sodipodi:docname="ball2.svg"
   inkscape:export-filename="/media/base/aldric/www_test/aldric/polynum/ball1.png"
   inkscape:export-xdpi="109.57452"
   inkscape:export-ydpi="109.57452"
   inkscape:version="0.92.5 (2060ec1f9f, 2020-04-08)">
  <defs
     id="defs2">
    <linearGradient
       inkscape:collect="always"
       id="linearGradient1034">
      <stop
         style="stop-color:#ffffff;stop-opacity:1"
         offset="0"
         id="stop1028" />
      <stop
         id="stop1030"
         offset="0.36920854"
         style="stop-color:#00c1fd;stop-opacity:1" />
      <stop
         style="stop-color:#000000;stop-opacity:1"
         offset="1"
         id="stop1032" />
    </linearGradient>
    <radialGradient
       inkscape:collect="always"
       xlink:href="#linearGradient1034"
       id="radialGradient832-8-9"
       gradientUnits="userSpaceOnUse"
       gradientTransform="matrix(-2.3905931,0.11054734,-0.10594682,-2.2911083,298.05553,269.29487)"
       cx="150.19083"
       cy="109.3172"
       fx="150.19083"
       fy="109.3172"
       r="59.342262" />
  </defs>
  <sodipodi:namedview
     id="base"
     pagecolor="#ffffff"
     bordercolor="#666666"
     borderopacity="1.0"
     inkscape:pageopacity="0.0"
     inkscape:pageshadow="2"
     inkscape:zoom="0.35"
     inkscape:cx="1058.5714"
     inkscape:cy="-178.57142"
     inkscape:document-units="mm"
     inkscape:current-layer="layer1"
     showgrid="false"
     inkscape:window-width="2560"
     inkscape:window-height="1422"
     inkscape:window-x="0"
     inkscape:window-y="0"
     inkscape:window-maximized="1"
     fit-margin-top="0"
     fit-margin-left="0"
     fit-margin-right="0"
     fit-margin-bottom="0" />
  <metadata
     id="metadata5">
    <rdf:RDF>
      <cc:Work
         rdf:about="">
        <dc:format>image/svg+xml</dc:format>
        <dc:type
           rdf:resource="http://purl.org/dc/dcmitype/StillImage" />
        <dc:title></dc:title>
      </cc:Work>
    </rdf:RDF>
  </metadata>
  <g
     inkscape:label="Calque 1"
     inkscape:groupmode="layer"
     id="layer1"
     transform="translate(154.59226,-0.28868866)">
    <circle
       style="opacity:1;fill:url(#radialGradient832-8-9);fill-opacity:1;stroke:none;stroke-width:1.96500003;stroke-miterlimit:4;stroke-dasharray:none;stroke-opacity:0.57088126"
       id="path817-2-9"
       cx="-95.25"
       cy="59.630951"
       r="59.342262" />
  </g>
</svg>
