<?xml version="1.0" encoding="UTF-8" standalone="no"?>
<!-- Created with Sodipodi ("http://www.sodipodi.com/") -->

<svg
   xmlns:dc="http://purl.org/dc/elements/1.1/"
   xmlns:cc="http://creativecommons.org/ns#"
   xmlns:rdf="http://www.w3.org/1999/02/22-rdf-syntax-ns#"
   xmlns:svg="http://www.w3.org/2000/svg"
   xmlns="http://www.w3.org/2000/svg"
   xmlns:xlink="http://www.w3.org/1999/xlink"
   xmlns:sodipodi="http://sodipodi.sourceforge.net/DTD/sodipodi-0.dtd"
   xmlns:inkscape="http://www.inkscape.org/namespaces/inkscape"
   id="svg548"
   sodipodi:version="0.32"
   width="72pt"
   height="72pt"
   sodipodi:docname="polynum_gris.svg"
   inkscape:version="0.92.5 (2060ec1f9f, 2020-04-08)"
   inkscape:output_extension="org.inkscape.output.svg.inkscape"
   version="1.1"
   inkscape:export-filename="/media/base/aldric/www_test/aldric/polynum/polynum.png"
   inkscape:export-xdpi="512"
   inkscape:export-ydpi="512">
  <metadata
     id="metadata42">
    <rdf:RDF>
      <cc:Work
         rdf:about="">
        <dc:format>image/svg+xml</dc:format>
        <dc:type
           rdf:resource="http://purl.org/dc/dcmitype/StillImage" />
      </cc:Work>
    </rdf:RDF>
  </metadata>
  <defs
     id="defs550">
    <linearGradient
       inkscape:collect="always"
       id="linearGradient4268">
      <stop
         style="stop-color:#ffffff;stop-opacity:1;"
         offset="0"
         id="stop4270" />
      <stop
         style="stop-color:#ffffff;stop-opacity:0;"
         offset="1"
         id="stop4272" />
    </linearGradient>
    <linearGradient
       inkscape:collect="always"
       id="linearGradient4216">
      <stop
         style="stop-color:#ff933d;stop-opacity:1;"
         offset="0"
         id="stop4218" />
      <stop
         style="stop-color:#ff933d;stop-opacity:0;"
         offset="1"
         id="stop4220" />
    </linearGradient>
    <linearGradient
       inkscape:collect="always"
       id="linearGradient4208">
      <stop
         style="stop-color:#ff933d;stop-opacity:1;"
         offset="0"
         id="stop4210" />
      <stop
         style="stop-color:#ff933d;stop-opacity:0;"
         offset="1"
         id="stop4212" />
    </linearGradient>
    <linearGradient
       inkscape:collect="always"
       id="linearGradient4200">
      <stop
         style="stop-color:#ff933d;stop-opacity:1;"
         offset="0"
         id="stop4202" />
      <stop
         style="stop-color:#ff933d;stop-opacity:0;"
         offset="1"
         id="stop4204" />
    </linearGradient>
    <linearGradient
       inkscape:collect="always"
       id="linearGradient4192">
      <stop
         style="stop-color:#ff933d;stop-opacity:1;"
         offset="0"
         id="stop4194" />
      <stop
         style="stop-color:#ff933d;stop-opacity:0;"
         offset="1"
         id="stop4196" />
    </linearGradient>
    <linearGradient
       inkscape:collect="always"
       id="linearGradient4184">
      <stop
         style="stop-color:#ff933d;stop-opacity:1;"
         offset="0"
         id="stop4186" />
      <stop
         style="stop-color:#ff933d;stop-opacity:0;"
         offset="1"
         id="stop4188" />
    </linearGradient>
    <linearGradient
       id="linearGradient4168">
      <stop
         style="stop-color:#ff933d;stop-opacity:1;"
         offset="0"
         id="stop4170" />
      <stop
         style="stop-color:#f1e36c;stop-opacity:1;"
         offset="1"
         id="stop4172" />
    </linearGradient>
    <linearGradient
       id="linearGradient4152">
      <stop
         style="stop-color:#ffe6ba;stop-opacity:1;"
         offset="0"
         id="stop4154" />
      <stop
         style="stop-color:#ffffff;stop-opacity:1;"
         offset="1"
         id="stop4156" />
    </linearGradient>
    <linearGradient
       id="linearGradient566">
      <stop
         style="stop-color:#ffffff;stop-opacity:1;"
         offset="0.000000"
         id="stop567" />
      <stop
         style="stop-color:#ffffff;stop-opacity:0;"
         offset="1.000000"
         id="stop568" />
    </linearGradient>
    <linearGradient
       id="linearGradient558">
      <stop
         style="stop-color:#7fa8e3;stop-opacity:0.741176;"
         offset="0.000000"
         id="stop559" />
      <stop
         style="stop-color:#ffffff;stop-opacity:0;"
         offset="1.000000"
         id="stop560" />
    </linearGradient>
    <linearGradient
       xlink:href="#linearGradient558"
       id="linearGradient561"
       x1="73.0144653"
       y1="38.8011742"
       x2="46.2984352"
       y2="43.8150940"
       gradientUnits="userSpaceOnUse"
       gradientTransform="scale(0.766548,1.304550)"
       spreadMethod="pad" />
    <linearGradient
       xlink:href="#linearGradient558"
       id="linearGradient563"
       x1="23.9531670"
       y1="24.2094688"
       x2="45.7012291"
       y2="18.4172096"
       gradientUnits="userSpaceOnUse"
       gradientTransform="scale(0.986297,1.013893)"
       spreadMethod="pad" />
    <linearGradient
       xlink:href="#linearGradient566"
       id="linearGradient565"
       x1="23.8109703"
       y1="38.8476372"
       x2="46.7923088"
       y2="38.8476372"
       gradientUnits="userSpaceOnUse"
       spreadMethod="pad"
       gradientTransform="scale(0.839949,1.190549)" />
    <linearGradient
       xlink:href="#linearGradient566"
       id="linearGradient570"
       x1="37.2327957"
       y1="15.7551279"
       x2="53.1239204"
       y2="17.6949825"
       gradientUnits="userSpaceOnUse"
       spreadMethod="pad"
       gradientTransform="scale(0.982487,1.017825)" />
    <radialGradient
       xlink:href="#linearGradient566"
       id="radialGradient787"
       cx="0.00626487"
       cy="0.02344454"
       fx="0.00626487"
       fy="0.02344454"
       r="1.01254535"
       gradientUnits="objectBoundingBox"
       spreadMethod="pad" />
    <radialGradient
       xlink:href="#linearGradient566"
       id="radialGradient799"
       cx="0.01886867"
       cy="0.03124458"
       fx="0.01886867"
       fy="0.03124458"
       r="1.09541798"
       gradientUnits="objectBoundingBox"
       spreadMethod="pad" />
    <radialGradient
       xlink:href="#linearGradient566"
       id="radialGradient800"
       cx="-0.00001126"
       cy="0.04684180"
       fx="-0.00001126"
       fy="0.04684180"
       r="1.04108524"
       gradientUnits="objectBoundingBox"
       spreadMethod="pad" />
    <linearGradient
       inkscape:collect="always"
       xlink:href="#linearGradient4152"
       id="linearGradient4158"
       x1="13.511364"
       y1="27.816328"
       x2="49.653019"
       y2="48.77766"
       gradientUnits="userSpaceOnUse" />
    <linearGradient
       inkscape:collect="always"
       xlink:href="#linearGradient4168"
       id="linearGradient4174"
       x1="11.617563"
       y1="78.390663"
       x2="15.865355"
       y2="56.277641"
       gradientUnits="userSpaceOnUse"
       gradientTransform="matrix(1.1002107,0,0,1.1002107,-1.5681501,-8.4677243)" />
    <linearGradient
       inkscape:collect="always"
       xlink:href="#linearGradient4184"
       id="linearGradient4190"
       x1="11.67354"
       y1="23.131874"
       x2="18.370438"
       y2="51.704552"
       gradientUnits="userSpaceOnUse" />
    <linearGradient
       inkscape:collect="always"
       xlink:href="#linearGradient4192"
       id="linearGradient4198"
       x1="11.67354"
       y1="23.131874"
       x2="18.370438"
       y2="51.704552"
       gradientUnits="userSpaceOnUse" />
    <linearGradient
       inkscape:collect="always"
       xlink:href="#linearGradient4200"
       id="linearGradient4206"
       x1="11.67354"
       y1="23.131874"
       x2="18.370438"
       y2="51.704552"
       gradientUnits="userSpaceOnUse" />
    <linearGradient
       inkscape:collect="always"
       xlink:href="#linearGradient4208"
       id="linearGradient4214"
       x1="11.67354"
       y1="23.131874"
       x2="18.370438"
       y2="51.704552"
       gradientUnits="userSpaceOnUse" />
    <linearGradient
       inkscape:collect="always"
       xlink:href="#linearGradient4216"
       id="linearGradient4222"
       x1="11.67354"
       y1="23.131874"
       x2="18.370438"
       y2="51.704552"
       gradientUnits="userSpaceOnUse" />
    <linearGradient
       inkscape:collect="always"
       xlink:href="#linearGradient4268"
       id="linearGradient4274"
       x1="9.1968594"
       y1="45.950241"
       x2="17.07151"
       y2="60.821251"
       gradientUnits="userSpaceOnUse"
       gradientTransform="matrix(0.9965155,-8.3408007e-2,8.3408007e-2,0.9965155,-5.1862672,4.6207834)" />
    <linearGradient
       inkscape:collect="always"
       xlink:href="#linearGradient4268"
       id="linearGradient4278"
       gradientUnits="userSpaceOnUse"
       gradientTransform="matrix(0.9965155,-8.3408007e-2,8.3408007e-2,0.9965155,10.032173,-34.93134)"
       x1="9.6391201"
       y1="46.613632"
       x2="17.401093"
       y2="58.831081" />
    <linearGradient
       inkscape:collect="always"
       xlink:href="#linearGradient4268"
       id="linearGradient4282"
       gradientUnits="userSpaceOnUse"
       gradientTransform="matrix(-0.9965155,8.3408007e-2,8.3408007e-2,0.9965155,85.277335,-4.0335852)"
       x1="9.1968594"
       y1="45.950241"
       x2="22.23148"
       y2="58.475811" />
    <filter
       style="color-interpolation-filters:sRGB;"
       inkscape:label="Greyscale"
       id="filter878">
      <feColorMatrix
         values="0.21 0.72 0.072 0 0 0.21 0.72 0.072 0 0 0.21 0.72 0.072 0 0 0 0 0 1 0 "
         id="feColorMatrix876" />
    </filter>
    <filter
       style="color-interpolation-filters:sRGB;"
       inkscape:label="Greyscale"
       id="filter882">
      <feColorMatrix
         values="0.21 0.72 0.072 0 0 0.21 0.72 0.072 0 0 0.21 0.72 0.072 0 0 0 0 0 1 0 "
         id="feColorMatrix880" />
    </filter>
    <filter
       style="color-interpolation-filters:sRGB;"
       inkscape:label="Greyscale"
       id="filter886">
      <feColorMatrix
         values="0.21 0.72 0.072 0 0 0.21 0.72 0.072 0 0 0.21 0.72 0.072 0 0 0 0 0 1 0 "
         id="feColorMatrix884" />
    </filter>
    <filter
       style="color-interpolation-filters:sRGB;"
       inkscape:label="Greyscale"
       id="filter890">
      <feColorMatrix
         values="0.21 0.72 0.072 0 0 0.21 0.72 0.072 0 0 0.21 0.72 0.072 0 0 0 0 0 1 0 "
         id="feColorMatrix888" />
    </filter>
    <filter
       style="color-interpolation-filters:sRGB;"
       inkscape:label="Greyscale"
       id="filter894">
      <feColorMatrix
         values="0.21 0.72 0.072 0 0 0.21 0.72 0.072 0 0 0.21 0.72 0.072 0 0 0 0 0 1 0 "
         id="feColorMatrix892" />
    </filter>
    <filter
       style="color-interpolation-filters:sRGB;"
       inkscape:label="Greyscale"
       id="filter898">
      <feColorMatrix
         values="0.21 0.72 0.072 0 0 0.21 0.72 0.072 0 0 0.21 0.72 0.072 0 0 0 0 0 1 0 "
         id="feColorMatrix896" />
    </filter>
    <filter
       style="color-interpolation-filters:sRGB;"
       inkscape:label="Greyscale"
       id="filter902">
      <feColorMatrix
         values="0.21 0.72 0.072 0 0 0.21 0.72 0.072 0 0 0.21 0.72 0.072 0 0 0 0 0 1 0 "
         id="feColorMatrix900" />
    </filter>
    <filter
       style="color-interpolation-filters:sRGB;"
       inkscape:label="Greyscale"
       id="filter906">
      <feColorMatrix
         values="0.21 0.72 0.072 0 0 0.21 0.72 0.072 0 0 0.21 0.72 0.072 0 0 0 0 0 1 0 "
         id="feColorMatrix904" />
    </filter>
    <filter
       style="color-interpolation-filters:sRGB;"
       inkscape:label="Greyscale"
       id="filter910">
      <feColorMatrix
         values="0.21 0.72 0.072 0 0 0.21 0.72 0.072 0 0 0.21 0.72 0.072 0 0 0 0 0 1 0 "
         id="feColorMatrix908" />
    </filter>
    <filter
       style="color-interpolation-filters:sRGB;"
       inkscape:label="Greyscale"
       id="filter914">
      <feColorMatrix
         values="0.21 0.72 0.072 0 0 0.21 0.72 0.072 0 0 0.21 0.72 0.072 0 0 0 0 0 1 0 "
         id="feColorMatrix912" />
    </filter>
    <filter
       style="color-interpolation-filters:sRGB;"
       inkscape:label="Greyscale"
       id="filter918">
      <feColorMatrix
         values="0.21 0.72 0.072 0 0 0.21 0.72 0.072 0 0 0.21 0.72 0.072 0 0 0 0 0 1 0 "
         id="feColorMatrix916" />
    </filter>
    <filter
       style="color-interpolation-filters:sRGB;"
       inkscape:label="Greyscale"
       id="filter922">
      <feColorMatrix
         values="0.21 0.72 0.072 0 0 0.21 0.72 0.072 0 0 0.21 0.72 0.072 0 0 0 0 0 1 0 "
         id="feColorMatrix920" />
    </filter>
    <filter
       style="color-interpolation-filters:sRGB;"
       inkscape:label="Greyscale"
       id="filter926">
      <feColorMatrix
         values="0.21 0.72 0.072 0 0 0.21 0.72 0.072 0 0 0.21 0.72 0.072 0 0 0 0 0 1 0 "
         id="feColorMatrix924" />
    </filter>
    <filter
       style="color-interpolation-filters:sRGB;"
       inkscape:label="Greyscale"
       id="filter930">
      <feColorMatrix
         values="0.21 0.72 0.072 0 0 0.21 0.72 0.072 0 0 0.21 0.72 0.072 0 0 0 0 0 1 0 "
         id="feColorMatrix928" />
    </filter>
    <filter
       style="color-interpolation-filters:sRGB;"
       inkscape:label="Greyscale"
       id="filter934">
      <feColorMatrix
         values="0.21 0.72 0.072 0 0 0.21 0.72 0.072 0 0 0.21 0.72 0.072 0 0 0 0 0 1 0 "
         id="feColorMatrix932" />
    </filter>
    <filter
       style="color-interpolation-filters:sRGB;"
       inkscape:label="Greyscale"
       id="filter938">
      <feColorMatrix
         values="0.21 0.72 0.072 0 0 0.21 0.72 0.072 0 0 0.21 0.72 0.072 0 0 0 0 0 1 0 "
         id="feColorMatrix936" />
    </filter>
    <filter
       style="color-interpolation-filters:sRGB;"
       inkscape:label="Greyscale"
       id="filter942">
      <feColorMatrix
         values="0.21 0.72 0.072 0 0 0.21 0.72 0.072 0 0 0.21 0.72 0.072 0 0 0 0 0 1 0 "
         id="feColorMatrix940" />
    </filter>
    <filter
       style="color-interpolation-filters:sRGB;"
       inkscape:label="Greyscale"
       id="filter946">
      <feColorMatrix
         values="0.21 0.72 0.072 0 0 0.21 0.72 0.072 0 0 0.21 0.72 0.072 0 0 0 0 0 1 0 "
         id="feColorMatrix944" />
    </filter>
  </defs>
  <sodipodi:namedview
     id="base"
     inkscape:zoom="3.197694"
     inkscape:cx="-81.051419"
     inkscape:cy="35.796345"
     inkscape:window-width="2560"
     inkscape:window-height="1422"
     inkscape:window-x="0"
     inkscape:window-y="0"
     inkscape:current-layer="svg548"
     showgrid="false"
     inkscape:window-maximized="1" />
  <g
     id="g1362"
     style="opacity:0.613">
    <path
       transform="matrix(0.9220653,-0.6799737,0.6516415,0.8836459,-47.042692,25.303589)"
       sodipodi:type="arc"
       style="opacity:1;fill:#000000;fill-opacity:1;fill-rule:nonzero;stroke:none;stroke-width:2;stroke-linecap:round;stroke-linejoin:round;stroke-miterlimit:4;stroke-dasharray:none;stroke-opacity:1;filter:url(#filter878)"
       id="path4244"
       sodipodi:cx="29.083458"
       sodipodi:cy="67.483772"
       sodipodi:rx="18.450796"
       sodipodi:ry="18.450796"
       d="M 47.534254 67.483772 A 18.450796 18.450796 0 1 1  10.632662,67.483772 A 18.450796 18.450796 0 1 1  47.534254 67.483772 z" />
    <path
       transform="matrix(0.9355448,-7.830478e-2,7.830478e-2,0.9355448,-9.6949678,3.4984012)"
       d="M 47.534254 67.483772 A 18.450796 18.450796 0 1 1  10.632662,67.483772 A 18.450796 18.450796 0 1 1  47.534254 67.483772 z"
       sodipodi:ry="18.450796"
       sodipodi:rx="18.450796"
       sodipodi:cy="67.483772"
       sodipodi:cx="29.083458"
       id="path4242"
       style="opacity:1;fill:#ed0000;fill-opacity:1;fill-rule:nonzero;stroke:none;stroke-width:2;stroke-linecap:round;stroke-linejoin:round;stroke-miterlimit:4;stroke-dasharray:none;stroke-opacity:1;filter:url(#filter882)"
       sodipodi:type="arc" />
    <path
       transform="matrix(0.8494484,-0.6264227,0.6003217,0.8140547,-27.091894,-12.386962)"
       sodipodi:type="arc"
       style="opacity:1;fill:#000000;fill-opacity:1;fill-rule:nonzero;stroke:none;stroke-width:2;stroke-linecap:round;stroke-linejoin:round;stroke-miterlimit:4;stroke-dasharray:none;stroke-opacity:1;filter:url(#filter886)"
       id="path4246"
       sodipodi:cx="29.083458"
       sodipodi:cy="67.483772"
       sodipodi:rx="18.450796"
       sodipodi:ry="18.450796"
       d="M 47.534254 67.483772 A 18.450796 18.450796 0 1 1  10.632662,67.483772 A 18.450796 18.450796 0 1 1  47.534254 67.483772 z" />
    <path
       transform="matrix(0.8618663,-7.2137917e-2,7.2137917e-2,0.8618663,7.3145235,-32.474891)"
       d="M 47.534254 67.483772 A 18.450796 18.450796 0 1 1  10.632662,67.483772 A 18.450796 18.450796 0 1 1  47.534254 67.483772 z"
       sodipodi:ry="18.450796"
       sodipodi:rx="18.450796"
       sodipodi:cy="67.483772"
       sodipodi:cx="29.083458"
       id="path4248"
       style="opacity:1;fill:#2aaf18;fill-opacity:1;fill-rule:nonzero;stroke:none;stroke-width:2;stroke-linecap:round;stroke-linejoin:round;stroke-miterlimit:4;stroke-dasharray:none;stroke-opacity:1;filter:url(#filter890)"
       sodipodi:type="arc" />
    <path
       transform="matrix(-0.135287,-1.1376582,1.0902557,-0.1296501,-1.0554005,100.59142)"
       sodipodi:type="arc"
       style="opacity:1;fill:#000000;fill-opacity:1;fill-rule:nonzero;stroke:none;stroke-width:2;stroke-linecap:round;stroke-linejoin:round;stroke-miterlimit:4;stroke-dasharray:none;stroke-opacity:1;filter:url(#filter894)"
       id="path4250"
       sodipodi:cx="29.083458"
       sodipodi:cy="67.483772"
       sodipodi:rx="18.450796"
       sodipodi:ry="18.450796"
       d="M 47.534254 67.483772 A 18.450796 18.450796 0 1 1  10.632662,67.483772 A 18.450796 18.450796 0 1 1  47.534254 67.483772 z" />
    <path
       transform="matrix(0.3943936,-0.8519561,0.8519561,0.3943936,-1.548289,57.347047)"
       d="M 47.534254 67.483772 A 18.450796 18.450796 0 1 1  10.632662,67.483772 A 18.450796 18.450796 0 1 1  47.534254 67.483772 z"
       sodipodi:ry="18.450796"
       sodipodi:rx="18.450796"
       sodipodi:cy="67.483772"
       sodipodi:cx="29.083458"
       id="path4252"
       style="opacity:1;fill:#31baff;fill-opacity:1;fill-rule:nonzero;stroke:none;stroke-width:2;stroke-linecap:round;stroke-linejoin:round;stroke-miterlimit:4;stroke-dasharray:none;stroke-opacity:1;filter:url(#filter898)"
       sodipodi:type="arc" />
    <path
       sodipodi:nodetypes="csscc"
       id="path4254"
       d="M 24.340112,45.221309 C 24.063404,40.125936 28.023773,31.321972 29.785952,30.391835 C 31.952386,29.248319 38.572512,30.412598 39.335546,32.979395 C 40.31605,36.277747 36.238216,44.70971 33.558716,47.482684 C 29.787321,46.932918 27.347783,45.950566 24.340112,45.221309 z "
       style="fill:#000000;fill-rule:evenodd;stroke:none;stroke-width:1px;stroke-linecap:butt;stroke-linejoin:miter;stroke-opacity:1;filter:url(#filter902)" />
    <path
       inkscape:transform-center-y="0.10972786"
       inkscape:transform-center-x="0.26834884"
       style="fill:#000000;fill-rule:evenodd;stroke:none;stroke-width:1px;stroke-linecap:butt;stroke-linejoin:miter;stroke-opacity:1;filter:url(#filter906)"
       d="M 50.480536,67.321196 C 44.974579,70.078478 33.827611,70.658057 32.155365,69.452398 C 30.099496,67.970153 28.944332,61.158339 31.488428,59.181393 C 34.757615,56.641002 44.877776,56.375463 48.915807,57.54309 C 49.067624,61.461981 49.507813,64.227739 50.480536,67.321196 z "
       id="path4256"
       sodipodi:nodetypes="csscc" />
    <path
       style="fill:url(#linearGradient4282);fill-opacity:1;fill-rule:evenodd;stroke:none;stroke-width:1px;stroke-linecap:butt;stroke-linejoin:miter;stroke-opacity:1;filter:url(#filter910)"
       d="M 79.570461,46.825331 C 83.458501,50.266926 87.625389,60.707156 82.121877,64.185635 C 75.520364,68.358103 73.864703,56.294889 68.52373,53.164586 C 64.466253,50.786529 64.704507,51.129052 61.662532,47.614859 C 58.386277,43.830018 65.389539,40.828445 71.190787,42.341149 C 74.936827,43.317947 76.950571,44.506268 79.570461,46.825331 z "
       id="path4280"
       sodipodi:nodetypes="csssss" />
    <path
       style="fill:#000000;fill-rule:evenodd;stroke:none;stroke-width:1px;stroke-linecap:butt;stroke-linejoin:miter;stroke-opacity:1;filter:url(#filter914)"
       d="M 54.333808,32.176341 C 59.640407,35.358583 66.313896,44.619026 66.26344,46.736368 C 66.201411,49.33944 61.302377,54.16994 58.278543,53.095484 C 54.392895,51.7148 48.54619,43.160562 47.249425,39.029957 C 49.925589,36.201972 51.905581,34.23663 54.333808,32.176341 z "
       id="path4258"
       sodipodi:nodetypes="csscc" />
    <path
       style="fill:#ffc93f;fill-rule:evenodd;stroke:none;stroke-width:1px;stroke-linecap:butt;stroke-linejoin:miter;stroke-opacity:1;filter:url(#filter918)"
       d="M 25.567389,44.712545 C 25.334971,40.432721 28.660906,32.444002 30.141037,31.662742 C 31.960718,30.702251 37.521251,31.680181 38.162154,33.836145 C 38.985722,36.606573 35.043918,44.05937 32.793291,46.388511 C 29.898386,45.393797 28.208273,44.901985 25.567389,44.712545 z "
       id="path4260"
       sodipodi:nodetypes="csscc" />
    <path
       sodipodi:nodetypes="csscc"
       id="path4262"
       d="M 54.300134,33.726936 C 58.732949,36.440156 65.100225,44.791703 65.041714,46.569692 C 64.969785,48.755563 60.818241,52.775419 58.286685,51.849937 C 55.033614,50.660685 50.120855,42.83693 48.984978,39.514083 C 51.496999,37.621338 52.661113,35.928478 54.300134,33.726936 z "
       style="fill:#ffc93f;fill-rule:evenodd;stroke:none;stroke-width:1px;stroke-linecap:butt;stroke-linejoin:miter;stroke-opacity:1;filter:url(#filter922)" />
    <path
       style="fill:#ffc93f;fill-rule:evenodd;stroke:none;stroke-width:1px;stroke-linecap:butt;stroke-linejoin:miter;stroke-opacity:1;filter:url(#filter926)"
       d="M 49.875361,66.5542 C 45.082055,68.763865 34.251168,69.518165 32.83374,68.431911 C 31.091142,67.096469 30.224301,61.359661 32.452312,59.73405 C 35.315325,57.645128 44.909221,57.652441 48.364688,58.775591 C 48.448699,62.026962 49.031476,63.869449 49.875361,66.5542 z "
       id="path4264"
       sodipodi:nodetypes="csscc" />
    <path
       sodipodi:nodetypes="csssss"
       id="path4266"
       d="M 8.9801516,53.894767 C 5.7183208,57.934803 3.3641594,68.214751 8.2058577,67.139967 C 15.829849,65.447557 14.434089,62.037989 19.180384,58.063385 C 22.78609,55.043923 24.270262,55.595981 26.685731,51.625002 C 29.287229,47.348195 21.937699,45.744082 16.468633,48.200108 C 12.937093,49.786037 11.17808,51.172454 8.9801516,53.894767 z "
       style="fill:url(#linearGradient4274);fill-opacity:1;fill-rule:evenodd;stroke:none;stroke-width:1px;stroke-linecap:butt;stroke-linejoin:miter;stroke-opacity:1;filter:url(#filter930)" />
    <path
       style="fill:url(#linearGradient4278);fill-opacity:1;fill-rule:evenodd;stroke:none;stroke-width:1px;stroke-linecap:butt;stroke-linejoin:miter;stroke-opacity:1;filter:url(#filter934)"
       d="M 24.198591,14.342643 C 20.93676,18.38268 19.574218,28.579629 24.415916,27.504846 C 32.039907,25.812435 30.340666,22.271359 35.086961,18.296754 C 38.692667,15.277292 39.488702,16.043857 41.90417,12.072878 C 44.505668,7.7960713 37.156138,6.1919583 31.687073,8.6479843 C 28.155532,10.233913 26.396519,11.620331 24.198591,14.342643 z "
       id="path4276"
       sodipodi:nodetypes="csssss" />
    <path
       sodipodi:nodetypes="cscc"
       id="path4284"
       d="M 31.559384,64.544965 C 31.357848,59.857389 34.128653,59.115536 36.781776,58.699399 C 39.438214,58.282743 43.703732,58.297162 44.468171,59.124645 C 39.543652,60.58148 35.081357,58.514884 31.559384,64.544965 z "
       style="fill:#ffffff;fill-opacity:1;fill-rule:evenodd;stroke:none;stroke-width:1px;stroke-linecap:butt;stroke-linejoin:miter;stroke-opacity:1;filter:url(#filter938)" />
    <path
       style="fill:#ffffff;fill-opacity:1;fill-rule:evenodd;stroke:none;stroke-width:1px;stroke-linecap:butt;stroke-linejoin:miter;stroke-opacity:1;filter:url(#filter942)"
       d="M 35.204463,31.996241 C 29.425455,30.71324 29.404177,33.160443 28.429622,35.39825 C 27.408344,37.743346 26.419805,41.922126 26.998837,42.762715 C 29.521902,38.384475 28.413366,32.801108 35.204463,31.996241 z "
       id="path4294"
       sodipodi:nodetypes="cscc" />
    <path
       id="path4296"
       d="M 53.96875 34.15625 C 53.553458 34.716588 53.15062 35.271345 52.75 35.78125 C 55.669399 37.268278 57.582339 40.175982 60.71875 42.28125 C 60.737236 41.103817 57.385262 37.167689 55.09375 35.1875 C 54.698754 34.84617 54.338918 34.501387 53.96875 34.15625 z "
       style="fill:#ffffff;fill-opacity:1;fill-rule:evenodd;stroke:none;stroke-width:1px;stroke-linecap:butt;stroke-linejoin:miter;stroke-opacity:1;filter:url(#filter946)" />
  </g>
</svg>
